<svg id="Layer_1" data-name="Layer 1" xmlns="http://www.w3.org/2000/svg" viewBox="0 0 528.13 549.73">
  <defs>
    <style>
      .cls-1, .cls-2 {
        fill: #231f20;
      }

      .cls-2 {
        stroke: #fff;
        stroke-miterlimit: 10;
        stroke-width: 2.24px;
      }

      .cls-3 {
        fill: #fff;
      }

      .cls-4 {
        fill: #f5f5f5;
      }
    </style>
  </defs>
  <title>republic_standover_aristotle</title>
  <g>
    <g>
      <path class="cls-1" d="M614.91,447.68a107.55,107.55,0,0,0-137.48-58.5l-4-9.13-15.74-44-6.09-19.44,13-4.42-1.09,2.41a5.16,5.16,0,1,0,9.41,4.25l6-13.26a5.16,5.16,0,0,0-6.37-7l-29,9.89a5.17,5.17,0,0,0-3.26,6.43l7.63,24.35v0l0.05,0.16,0.87,2.44L290.36,349l-12.85-43.53a4.06,4.06,0,0,0-7.79,2.3l14,47.28L257.15,396.9a107.37,107.37,0,1,0,44.49,134.42q0.46-1.08.88-2.16l17.79,4.2L315,555.14H304.82V564l27.31,0v-8.86H322.6l5-20.31A32.12,32.12,0,0,0,331,535a31.55,31.55,0,0,0,24.57-51.31l-0.21-.26L458.14,368l5.67,15.85,4.16,9.47A107.4,107.4,0,1,0,614.91,447.68ZM286.73,365.43L318.2,472.06l-9.49.13a107,107,0,0,0-17-42.76A107.94,107.94,0,0,0,264,401.29Zm41.2,110.92,2.8,0s2.1,0,3.16.16l0.3,0-1.23,5a21.9,21.9,0,0,0-2.2-.11h-0.14c-0.4,0-.79,0-1.18,0Zm-6.36,7.11a22.11,22.11,0,0,0-11.71,13.13q0.23-3.53.23-7.1a108.76,108.76,0,0,0-.76-12.89l10.18-.14Zm-24.71,39.81L287,521a89,89,0,0,0,4.54-17.27l10,1A99.33,99.33,0,0,1,296.86,523.27Zm5.85-33.77q0,3.61-.25,7.15l-10-1q0.2-3,.21-6.12a91.19,91.19,0,0,0-.88-12.64l10.08-.14A101,101,0,0,1,302.71,489.5Zm-13.7,0q0,2.89-.19,5.74l-78.55-8.15c-0.08-.24-0.16-0.48-0.26-0.72l5.36-8.44,72.73-1A86.88,86.88,0,0,1,289,489.5Zm-70.81-16,34.48-54.35a86.39,86.39,0,0,1,34.65,53.39Zm-9.7.14-5.71.08h-0.22a15.73,15.73,0,0,0-3.18,31.14l82.35,19.44a86.35,86.35,0,1,1-35.88-109.54Zm-8.17,26.89a11.3,11.3,0,0,1,2.23-22.38h0.22l2.88,0-2.16,3.41a8.06,8.06,0,1,0-.88,16.06,8,8,0,0,0,5.77-2.48l79.52,8.25a85.81,85.81,0,0,1-4.48,16.8Zm59.7-93a100.06,100.06,0,0,1,41.2,64.77l-10.14.14a89.71,89.71,0,0,0-13.77-33.29A90.56,90.56,0,0,0,254.66,416Zm-57.37,182A100,100,0,1,1,253.2,403.14l-5.37,8.46a90,90,0,1,0,37.55,113.51l9.88,2.33A100.08,100.08,0,0,1,202.66,589.55Zm118.71-60.49L304.09,525a106.17,106.17,0,0,0,4.79-19.29,22,22,0,0,0,13.75,18.19Zm2.15-8.81a18.39,18.39,0,0,1-10.9-14.38,18.59,18.59,0,0,1-.16-2.31,18.3,18.3,0,0,1,18.07-18.41h0.24c0.44,0,.88,0,1.31,0a18.15,18.15,0,0,1,6.38,1.66l0.72,0.36a18.49,18.49,0,0,1,7,6.46,18.29,18.29,0,0,1-15.35,28.08h-0.12A18.15,18.15,0,0,1,323.52,520.25ZM341,484l-0.92-.46,1.26-5.15a27.09,27.09,0,0,1,3.24,1.6Zm16.91,22.41A27.13,27.13,0,0,1,331,530.58q-1.17,0-2.36-.1l1.23-5.05,0.91,0h0.14a22,22,0,0,0,17.86-34.62l3.59-4A27,27,0,0,1,357.91,506.39Zm-10.34-29.78q-0.62-.38-1.25-0.74a31.44,31.44,0,0,0-3.92-1.84l5.3-21.7,10.17,0v-8.86l-27.31,0v8.86h9.54l-4.85,19.87-0.88-.11c-1.22-.13-3.31-0.18-3.55-0.19h-0.16l-4,.06-33.26-112.7,158.22-7.14,1.8,5.73Zm159.57,5.78a11.31,11.31,0,1,0,9.45-4.18l-30.65-69.71a86.4,86.4,0,1,1-9.45,4.17Zm8.8,107.15a100.06,100.06,0,0,1-45-189.44l4,9.18a89.63,89.63,0,1,0,9.46-4.17l-4-9.18A100.06,100.06,0,1,1,515.93,589.55Z" transform="translate(-95.23 -47.2)"/>
      <path class="cls-1" d="M227.44,284.66l26.66,17a5.17,5.17,0,0,0,4.25.6l19.38-5.73,36.24-.21a5.17,5.17,0,0,0,.64-10.29l-83.71-10.88A5.17,5.17,0,0,0,227.44,284.66Z" transform="translate(-95.23 -47.2)"/>
    </g>
    <g>
      <path class="cls-1" d="M433.85,273.42l-10.23,18.41,41.13,14.54,14.1-5.24C471.4,288.15,455.17,279.52,433.85,273.42Z" transform="translate(-95.23 -47.2)"/>
      <g>
        <g>
          <path class="cls-2" d="M425,270.41a7.68,7.68,0,1,1-7.6,13.36L363.16,257a11.25,11.25,0,0,1,11.12-19.56Z" transform="translate(-95.23 -47.2)"/>
          <g>
            <path class="cls-1" d="M349.89,565q-0.52,0-1,0a14.29,14.29,0,0,1-13.21-15.21l0.13-95.24v-0.05a20.27,20.27,0,0,1,20.13-18.75q0.73,0,1.48.05a20.23,20.23,0,0,1,18.69,21.61l-12,94.47A14.3,14.3,0,0,1,349.89,565Z" transform="translate(-95.23 -47.2)"/>
            <path class="cls-3" d="M355.91,437.17q0.68,0,1.37,0a18.7,18.7,0,0,1,17.31,20l-12,94.39a12.78,12.78,0,0,1-12.73,11.85q-0.46,0-.93,0a12.78,12.78,0,0,1-11.82-13.66l0.13-95.24a18.71,18.71,0,0,1,18.64-17.36m0-3h0a21.77,21.77,0,0,0-21.63,20.14v0.21l-0.13,95.14a15.79,15.79,0,0,0,14.6,16.76c0.38,0,.77,0,1.15,0a15.83,15.83,0,0,0,15.71-14.55l12-94.31v-0.16a21.73,21.73,0,0,0-20.08-23.21c-0.53,0-1.06-.06-1.59-0.06h0Z" transform="translate(-95.23 -47.2)"/>
          </g>
          <path class="cls-1" d="M361.14,149a8,8,0,0,1-15.53-3.52l6.65-46A11.66,11.66,0,0,1,375,104.63Z" transform="translate(-95.23 -47.2)"/>
          <g>
            <path class="cls-1" d="M357.85,436.21c-0.53,0-1.08,0-1.61-.07a19.22,19.22,0,0,1-17.56-20.68l-0.24-96.41-9.27-1.72,0.27-1.47a128.36,128.36,0,0,1,15.43-41.49c0.82-1.4,1.69-2.83,2.6-4.24l0.54-.85,3.77,0.7A27.07,27.07,0,0,1,353,237.14a138.18,138.18,0,0,1-26.36-86.58l0-1.05,45.69-14.44,0.64,0.84a138.22,138.22,0,0,1,28.11,88.95c-0.07,1.73-.18,3.52-0.32,5.31l-0.08,1-9,2.84a27.05,27.05,0,0,1-2.85,42.87l6,1.12,0.2,1c0.36,1.76.65,3.36,0.9,4.89a128.44,128.44,0,0,1-.52,44.26l-0.27,1.48-4.17-.78L377,418.65A19.32,19.32,0,0,1,357.85,436.21Z" transform="translate(-95.23 -47.2)"/>
            <path class="cls-3" d="M371.82,136.82a136.73,136.73,0,0,1,27.81,88q-0.11,2.63-.31,5.25l-10.73,3.39a25.56,25.56,0,0,1-4.05,44.16l9.1,1.69c0.32,1.6.62,3.21,0.89,4.83a127.08,127.08,0,0,1-.52,43.75l-4.22-.79-14.31,91.38a17.72,17.72,0,0,1-17.63,16.24c-0.49,0-1,0-1.49-.06a17.72,17.72,0,0,1-16.18-19.12l-0.25-97.72-9-1.68a127,127,0,0,1,15.25-41q1.24-2.13,2.56-4.19l6.87,1.28a25.55,25.55,0,0,1-.69-35,136.67,136.67,0,0,1-26.78-86.6l43.68-13.8m1.11-3.5-2,.64-43.68,13.8-2,.64-0.08,2.11a139.69,139.69,0,0,0,26,86.6,28.59,28.59,0,0,0-2.4,30.78l-1.42-.26-1.09,1.7c-0.92,1.43-1.8,2.87-2.63,4.3a129.86,129.86,0,0,0-15.61,42l-0.55,2.95,2.95,0.55,6.57,1.22,0.24,95.11a20.72,20.72,0,0,0,18.93,22.23c0.58,0,1.16.07,1.74,0.07a20.83,20.83,0,0,0,20.61-18.88l13.82-88.23,1.18,0.22,3,0.55,0.55-3a129.94,129.94,0,0,0,.53-44.78c-0.25-1.54-.55-3.16-0.91-4.94l-0.4-2-2-.37-1.7-.32a28.54,28.54,0,0,0,2.11-41.34l5.62-1.78,1.93-.61,0.16-2c0.14-1.81.25-3.61,0.32-5.36A139.74,139.74,0,0,0,374.2,135l-1.28-1.68h0Z" transform="translate(-95.23 -47.2)"/>
          </g>
          <polygon class="cls-1" points="240.26 519.48 231.92 548.53 312.67 548.53 309.02 539.16 269.95 527.82 266.83 519.48 240.26 519.48"/>
          <g>
            <path class="cls-1" d="M365.72,127.58a25,25,0,0,1-2.59-.14c-8.33-.87-15.71-5.82-20.77-13.95s-7.14-18.16-6-28.59c2.12-20.3,16.37-36.21,32.45-36.21a25,25,0,0,1,2.59.14c17.05,1.78,29.09,20.86,26.82,42.54C396,111.68,381.8,127.58,365.72,127.58Z" transform="translate(-95.23 -47.2)"/>
            <path class="cls-3" d="M368.76,50.2a23.44,23.44,0,0,1,2.43.13c16.26,1.7,27.67,20,25.49,40.89-2.07,19.84-15.66,34.87-31,34.87a23.46,23.46,0,0,1-2.43-.13c-16.26-1.7-27.67-20-25.49-40.89,2.07-19.84,15.66-34.87,31-34.87m0-3h0c-8.29,0-16.34,3.91-22.67,11a47.39,47.39,0,0,0-11.27,26.56c-1.12,10.76,1.1,21.25,6.27,29.54,5.31,8.53,13.09,13.73,21.89,14.65a26.56,26.56,0,0,0,2.74.14c8.29,0,16.34-3.9,22.67-11a47.39,47.39,0,0,0,11.27-26.56C402,69,389.38,49.21,371.5,47.34a26.58,26.58,0,0,0-2.74-.14h0Z" transform="translate(-95.23 -47.2)"/>
          </g>
          <g>
            <path class="cls-1" d="M353.39,242.44q-0.47,0-.95,0A12.42,12.42,0,0,1,341,229.13l-0.26-63.8v-0.06a17.56,17.56,0,0,1,17.43-16.18q0.66,0,1.34.05a17.52,17.52,0,0,1,16.13,18.77V168l-9.84,63A12.48,12.48,0,0,1,353.39,242.44Z" transform="translate(-95.23 -47.2)"/>
            <path class="cls-3" d="M358.16,150.6q0.61,0,1.22,0a16,16,0,0,1,14.75,17.16l-9.85,63a10.93,10.93,0,0,1-10.88,10.1q-0.41,0-.83,0a10.92,10.92,0,0,1-10.07-11.72l-0.26-63.8a16,16,0,0,1,15.93-14.79m0-3h0a19.07,19.07,0,0,0-18.93,17.57v0.24l0.26,63.69a13.92,13.92,0,0,0,12.84,14.81c0.35,0,.71,0,1.06,0a14,14,0,0,0,13.87-12.75l9.83-62.92,0-.12V168a19,19,0,0,0-17.51-20.37c-0.48,0-1-.06-1.45-0.06h0Z" transform="translate(-95.23 -47.2)"/>
          </g>
          <g>
            <path class="cls-1" d="M371.14,318.66a8.72,8.72,0,0,1-8.36-6.34L343.87,258A12,12,0,1,1,367,251.4l12.52,56.3A8.7,8.7,0,0,1,371.14,318.66Z" transform="translate(-95.23 -47.2)"/>
            <path class="cls-3" d="M355.43,244.12a10.53,10.53,0,0,1,10.13,7.68L378.06,308a7.19,7.19,0,1,1-13.85,3.89L345.29,257.5a10.54,10.54,0,0,1,10.14-13.38m0-3h0a13.54,13.54,0,0,0-13,17.19l0,0.09,0,0.09,18.9,54.33A10.19,10.19,0,0,0,381,307.29l-12.49-56.14,0-.08,0-.08a13.57,13.57,0,0,0-13-9.87h0Z" transform="translate(-95.23 -47.2)"/>
          </g>
        </g>
        <g>
          <path class="cls-4" d="M387.3,102.75c-7.29-.23-9.9-7-10.38-11.25h0a3.13,3.13,0,0,0-.55.06c-1,2.15-4.55,8-11.64,8h0c-0.29,0-.59,0-0.9,0-8.35-.59-10-7.76-10.24-11.82l-12.39,1.66-0.87-5.75,11.62-1.5,0-.8,1.3-.31a36.33,36.33,0,0,1,8.27-1c9.2,0,14,4.19,15.54,5.8l2.18,0.09a16,16,0,0,1,6.62-1.25,41,41,0,0,1,13.53,2.82l1.13,0.46L400,92.08l-2.09,1.31c-0.56,3.65-3.2,9.38-10.17,9.38h-0.4Z" transform="translate(-95.23 -47.2)"/>
          <path class="cls-1" d="M361.45,81.56c10.48,0,14.79,5.77,14.79,5.77l3.27,0.13a14.14,14.14,0,0,1,6.29-1.27,39.78,39.78,0,0,1,12.92,2.7l-0.26,2.22-2.09,1.31s-0.64,8.72-8.67,8.72h-0.35c-8.37-.26-8.89-10.55-8.89-10.55a1.7,1.7,0,0,0-1.56-.7,5.65,5.65,0,0,0-1.71.31s-3,7.71-10.49,7.71l-0.79,0c-8.41-.59-8.87-9.11-8.78-12l-12.61,1.69L342.13,85l11.46-1.48,0-.95a34.54,34.54,0,0,1,7.91-1m0-3.21h0a38,38,0,0,0-8.64,1.06l-2.6.61,0,0.66-8.52,1.1-3.25.42L339,85.44,339.34,88l0.47,3.12,3.13-.42,9.18-1.23c0.83,5.77,4.15,11.09,11.56,11.61,0.34,0,.68,0,1,0a13.93,13.93,0,0,0,11.36-6c1.37,4.32,4.63,9.07,11.19,9.28h0.46c7.6,0,10.75-5.82,11.62-10l0.84-.52,1.31-.82,0.18-1.53,0.26-2.22,0.28-2.42-2.26-.92A42.84,42.84,0,0,0,385.8,83a17.94,17.94,0,0,0-6.93,1.24l-1.2,0c-2.12-2-7.28-5.83-16.22-5.83h0Z" transform="translate(-95.23 -47.2)"/>
        </g>
      </g>
      <polygon class="cls-4" points="235.69 268.93 298.78 280.67 298.78 283.37 235.69 271.63 235.69 268.93"/>
      <g>
        <path class="cls-1" d="M380.27,363.91l-19.56-41.57,25.39-7.09L402.62,344l-5.53,3.87c3.26,16.23,0,22.07-.14,22.32l-0.69,1.18Z" transform="translate(-95.23 -47.2)"/>
        <path class="cls-3" d="M385.38,317l15.26,26.54-5.21,3.65c3.51,16.6.24,22.23,0.24,22.23l-14.27-6.63L362.82,323.3l22.56-6.3m1.44-3.52-2.25.63L362,320.42l-3.42,1,1.51,3.21,18.58,39.47,0.46,1,1,0.46,14.27,6.63,2.48,1.15,1.38-2.36c0.38-.65,3.5-6.63.5-22.4l3.6-2.52,2.25-1.57L403.24,342,388,315.51l-1.16-2h0Z" transform="translate(-95.23 -47.2)"/>
      </g>
    </g>
  </g>
</svg>
